実証会計・ファイナンスのノート - 4 財務データの取得と可視化
…
という処理をしています。

# 2020年度の産業内のROEランキングの変数を作成
ROE_rank_data <- financial_data %>%
    filter(year == 2020) %>% # 2020年度データを抽出
    select(firm_ID, industry_ID, ROE) %>% # 必要な変数を選択
    group_by(industry_ID) %>% # 産業コードごとに以下の処理を実行
    mutate(
        ROE_rank = rank(desc(ROE)) # ROE_rank変数を降順で作成
    ) %>%
    ungroup()# グループ化を解除
print(ROE_rank_data)

# A tibble: 1,363 × 4
   firm_ID industry_ID     ROE ROE_rank
   <fct>   <fct>         <dbl>    <dbl>
 1 1       1           0.0762        85
 2 2       1           0.0728        90
 3 3       1           0.119         36
 4 4       1           0.0216       154
 5 5       1           0.113         39
 6 7       1           0.00379      167
 7 8       1           0.388          1
 8 9       1           0.0913        68
 9 10      1           0.111         44
10 11      1           0.130         28
# ℹ 1,353 more rows
…
