実証会計・ファイナンスのノート - 5 株式データの取得と可視化
…
逆日歩
信用売りが殺到し株不足となった銘柄でショート・セラーが追加で 支払う費用のこと

踏み上げ
株価上昇で損失を抱えたショート・セラー(2.2.3 節を参照)のロス カットが一段の株高を招くこと

5.0.1 株価データのダウンロードと読み込み

いままでと同じように、readrパッケージのread_csv()関数でCSVファイルを読み込みます。 ここでは、ch05_stock_data.csvを使います。

library(tidyverse)
stock_data <- read_csv("data/ch05_stock_data.csv")
print(stock_data)

# A tibble: 95,040 × 9
    year month month_ID firm_ID stock_price   DPS shares_outstanding
   <dbl> <dbl>    <dbl>   <dbl>       <dbl> <dbl>              <dbl>
 1  2015     1        1       1         954     0            2422000
 2  2015     2        2       1         960     0            2422000
 3  2015     3        3       1        1113     0            2422000
 4  2015     4        4       1        1081     0            2422000
 5  2015     5        5       1        1317     0            2422000
 6  2015     6        6       1        1366    29            2422000
 7  2015     7        7       1        1353     0            2422000
 8  2015     8        8       1        1209     0            2422000
 9  2015     9        9       1        1291     0            2422000
10  2015    10       10       1        1407     0            2422000
# ℹ 95,030 more rows
# ℹ 2 more variables: adjustment_coefficient <dbl>, R_F <dbl>
…
