実証会計・ファイナンスのノート - 6 ファクターモデルの導入
…
前回と同様に、full_join()関数でmonthly_dataとannual_dataを結合します。 drop_na()関数で欠損行を削除し、group_by()関数でmonth_IDとME_rank10に関してグループ化した上で、summarize()関数で月次超過リターンReの平均値を計算して、Re変数としています。

# ch06_13: 前年度末の時価総額に基づくポートフォリオ・ソート (2)

ME_sorted_portfolio <- annual_data %>%
  select(year, firm_ID, ME_rank10) %>% # 年次データから追加したい情報を抽出
  full_join(monthly_data, by = c("year", "firm_ID")) %>% # yearとfirm_IDをキーに月次データと結合
  drop_na() %>% # 欠損行を削除
  group_by(month_ID, ME_rank10) %>% # month_IDとME_rank10に関してグループ化
  summarize(Re = mean(Re)) %>% # 各グループで月次超過リターンの平均値を計算
  ungroup()
ME_sorted_portfolio

# A tibble: 600 × 3
   month_ID ME_rank10     Re
      <dbl> <fct>      <dbl>
 1       13 1         0.0291
 2       13 2         0.0272
 3       13 3         0.0353
 4       13 4         0.0545
 5       13 5         0.0460
 6       13 6         0.0438
 7       13 7         0.0530
 8       13 8         0.0398
 9       13 9         0.0536
10       13 10        0.0478
# ℹ 590 more rows
…
annual_data <- annual_data %>%
  mutate(lagged_ME = replace(lagged_ME, is.na(lagged_BEME), NA)) %>% # lagged_BEMEがNAのときlagged_MEもNAに
  group_by(year) %>% # 年度ごとに
  mutate(ME_rank2 = as.factor(ntile(lagged_ME, 2))) %>% # 2つのグループに分ける
  ungroup()

簿価時価比率に基づくランク付け (1)

annual_data %>%
  group_by(year) %>%
  mutate(BEME_percent_rank = percent_rank(lagged_BEME)) %>% # 年度ごとに簿価時価比率のパーセンタイル順位を計算
  select(firm_ID, year, lagged_BEME, ME_rank2, BEME_percent_rank) %>%
  ungroup()

# A tibble: 7,920 × 5
   firm_ID  year lagged_BEME ME_rank2 BEME_percent_rank
     <dbl> <dbl>       <dbl> <fct>                <dbl>
 1       1  2015      NA     <NA>              NA      
 2       1  2016      NA     <NA>              NA      
 3       1  2017       1.45  1                  0.729  
 4       1  2018       0.916 1                  0.529  
 5       1  2019       1.25  1                  0.626  
 6       1  2020       0.793 1                  0.481  
 7       2  2015      NA     <NA>              NA      
 8       2  2016       0.258 1                  0.0331 
 9       2  2017       0.193 1                  0.0158 
10       2  2018       0.124 1                  0.00631
# ℹ 7,910 more rows
…
